10000011	Pasochoa	6.3549	0	0
10000017	Baiami stirlingi	16.2763	0	0
10000018	Barruelo del Valle	18.1151	0	0
10000021	Shirley (romans)	15.1684	0	0
10000022	Wolfgang Boos	7.0336	0	0
10000041	Edward Stevens (général)	8.9788	0	0
10000049	Baiami torbayensis	15.5529	0	0
10000071	Linda Cerruti	7.3082	0	0
10000078	Société de la reliure originale	19.2636	0	0
10000080	Jennifer Lopez: All I Have	15.027	0	0
10000093	Nassim Saidi	27.7865	0	0
10000097	Varah	1.5464	0	0
10000100	Diagnon	1.5611	0	0
1000014	Eva Twardokens	12.6959	0	0
10000151	Karen Jean Meech	29.7202	0	0
10000200	Abderrahmane Hamza	35.2188	0	0
10000201	An Young-gil	12.4202	0	0
10000213	Premières Nations de Cold Lake	16.1195	0	0
10000216	Mottureau	26.469	0	0
10000217	Île Marceau	7.9771	0	0
